{
  "content": [
    {
      "user": 156,
      "company": { "id": 1, "name": "BOOM Imagestudio", "organization": 1 },
      "role": { "id": 2, "name": "ROLE_ADMIN" },
      "type": "USER",
      "createdAt": 1582540191000,
      "updatedAt": 1582540191000
    },
    {
      "user": 156,
      "company": { "id": 15, "name": "SweetGuest", "organization": 15 },
      "role": { "id": 2, "name": "ROLE_ADMIN" },
      "type": "USER",
      "createdAt": 1582540191000,
      "updatedAt": 1582540191000
    },
    {
      "user": 156,
      "company": { "id": 29, "name": "Bottega52", "organization": 21 },
      "role": { "id": 2, "name": "ROLE_ADMIN" },
      "type": "USER",
      "createdAt": 1582540191000,
      "updatedAt": 1582540191000
    },
    {
      "user": 156,
      "company": { "id": 38, "name": "BottegaSRL", "organization": 22 },
      "role": { "id": 2, "name": "ROLE_ADMIN" },
      "type": "USER",
      "createdAt": 1582540191000,
      "updatedAt": 1582540191000
    },
    {
      "user": 156,
      "company": { "id": 41, "name": "Sofia SRLa", "organization": 23 },
      "role": { "id": 2, "name": "ROLE_ADMIN" },
      "type": "USER",
      "createdAt": 1582540191000,
      "updatedAt": 1582540191000
    },
    {
      "user": 156,
      "company": { "id": 48, "name": "JacopelliSRLa", "organization": 26 },
      "role": { "id": 2, "name": "ROLE_ADMIN" },
      "type": "USER",
      "createdAt": 1582540191000,
      "updatedAt": 1582540191000
    },
    {
      "user": 156,
      "company": { "id": 49, "name": "LA prova", "organization": 27 },
      "role": { "id": 2, "name": "ROLE_ADMIN" },
      "type": "USER",
      "createdAt": 1582540191000,
      "updatedAt": 1582540191000
    },
    {
      "user": 156,
      "company": { "id": 958, "name": "Prova PDF", "organization": 936 },
      "role": { "id": 2, "name": "ROLE_ADMIN" },
      "type": "USER",
      "createdAt": 1582540191000,
      "updatedAt": 1582540191000
    },
    {
      "user": 156,
      "company": { "id": 959, "name": "Prova PDF2", "organization": 937 },
      "role": { "id": 2, "name": "ROLE_ADMIN" },
      "type": "USER",
      "createdAt": 1582540191000,
      "updatedAt": 1582540191000
    },
    {
      "user": 156,
      "company": { "id": 960, "name": "Prova pdf3", "organization": 938 },
      "role": { "id": 2, "name": "ROLE_ADMIN" },
      "type": "USER",
      "createdAt": 1582540191000,
      "updatedAt": 1582540191000
    },
    {
      "user": 156,
      "company": { "id": 961, "name": "provolo", "organization": 939 },
      "role": { "id": 2, "name": "ROLE_ADMIN" },
      "type": "USER",
      "createdAt": 1582540191000,
      "updatedAt": 1582540191000
    },
    {
      "user": 156,
      "company": { "id": 962, "name": "eeee", "organization": 940 },
      "role": { "id": 2, "name": "ROLE_ADMIN" },
      "type": "USER",
      "createdAt": 1582540191000,
      "updatedAt": 1582540191000
    },
    {
      "user": 156,
      "company": { "id": 964, "name": "Pove", "organization": 941 },
      "role": { "id": 2, "name": "ROLE_ADMIN" },
      "type": "USER",
      "createdAt": 1582540191000,
      "updatedAt": 1582540191000
    },
    {
      "user": 156,
      "company": { "id": 965, "name": "Provolazzo", "organization": 942 },
      "role": { "id": 2, "name": "ROLE_ADMIN" },
      "type": "USER",
      "createdAt": 1582540191000,
      "updatedAt": 1582540191000
    },
    {
      "user": 156,
      "company": { "id": 966, "name": "Ancorapovo", "organization": 943 },
      "role": { "id": 2, "name": "ROLE_ADMIN" },
      "type": "USER",
      "createdAt": 1582540191000,
      "updatedAt": 1582540191000
    },
    {
      "user": 156,
      "company": { "id": 967, "name": "SemprePiù", "organization": 944 },
      "role": { "id": 2, "name": "ROLE_ADMIN" },
      "type": "USER",
      "createdAt": 1582540191000,
      "updatedAt": 1582540191000
    },
    {
      "user": 156,
      "company": { "id": 968, "name": "Preve", "organization": 945 },
      "role": { "id": 2, "name": "ROLE_ADMIN" },
      "type": "USER",
      "createdAt": 1582540191000,
      "updatedAt": 1582540191000
    },
    {
      "user": 156,
      "company": { "id": 969, "name": "ssdddd", "organization": 946 },
      "role": { "id": 2, "name": "ROLE_ADMIN" },
      "type": "USER",
      "createdAt": 1582540191000,
      "updatedAt": 1582540191000
    },
    {
      "user": 156,
      "company": { "id": 970, "name": "Povo", "organization": 947 },
      "role": { "id": 2, "name": "ROLE_ADMIN" },
      "type": "USER",
      "createdAt": 1582540191000,
      "updatedAt": 1582540191000
    },
    {
      "user": 156,
      "company": { "id": 971, "name": "powip", "organization": 948 },
      "role": { "id": 2, "name": "ROLE_ADMIN" },
      "type": "USER",
      "createdAt": 1582540191000,
      "updatedAt": 1582540191000
    },
    {
      "user": 156,
      "company": { "id": 972, "name": "ffff", "organization": 949 },
      "role": { "id": 2, "name": "ROLE_ADMIN" },
      "type": "USER",
      "createdAt": 1582540191000,
      "updatedAt": 1582540191000
    },
    {
      "user": 156,
      "company": { "id": 973, "name": "eee", "organization": 950 },
      "role": { "id": 2, "name": "ROLE_ADMIN" },
      "type": "USER",
      "createdAt": 1582540191000,
      "updatedAt": 1582540191000
    },
    {
      "user": 156,
      "company": { "id": 974, "name": "eeeevsvf", "organization": 951 },
      "role": { "id": 2, "name": "ROLE_ADMIN" },
      "type": "USER",
      "createdAt": 1582540191000,
      "updatedAt": 1582540191000
    },
    {
      "user": 156,
      "company": { "id": 975, "name": "provoloa", "organization": 952 },
      "role": { "id": 2, "name": "ROLE_ADMIN" },
      "type": "USER",
      "createdAt": 1582540191000,
      "updatedAt": 1582540191000
    },
    {
      "user": 156,
      "company": { "id": 976, "name": "edd", "organization": 953 },
      "role": { "id": 2, "name": "ROLE_ADMIN" },
      "type": "USER",
      "createdAt": 1582540191000,
      "updatedAt": 1582540191000
    },
    {
      "user": 156,
      "company": { "id": 977, "name": "provosloeof", "organization": 954 },
      "role": { "id": 2, "name": "ROLE_ADMIN" },
      "type": "USER",
      "createdAt": 1582540191000,
      "updatedAt": 1582540191000
    },
    {
      "user": 156,
      "company": { "id": 978, "name": "provoalfjfj", "organization": 955 },
      "role": { "id": 2, "name": "ROLE_ADMIN" },
      "type": "USER",
      "createdAt": 1582540191000,
      "updatedAt": 1582540191000
    },
    {
      "user": 156,
      "company": { "id": 979, "name": "eeeesff", "organization": 956 },
      "role": { "id": 2, "name": "ROLE_ADMIN" },
      "type": "USER",
      "createdAt": 1582540191000,
      "updatedAt": 1582540191000
    },
    {
      "user": 156,
      "company": { "id": 980, "name": "owehciuhsouchdil", "organization": 957 },
      "role": { "id": 2, "name": "ROLE_ADMIN" },
      "type": "USER",
      "createdAt": 1582540191000,
      "updatedAt": 1582540191000
    },
    {
      "user": 156,
      "company": { "id": 981, "name": "eeeeewaaaa", "organization": 958 },
      "role": { "id": 2, "name": "ROLE_ADMIN" },
      "type": "USER",
      "createdAt": 1582540191000,
      "updatedAt": 1582540191000
    },
    {
      "user": 156,
      "company": { "id": 982, "name": "dkjfkjf", "organization": 959 },
      "role": { "id": 2, "name": "ROLE_ADMIN" },
      "type": "USER",
      "createdAt": 1582540191000,
      "updatedAt": 1582540191000
    },
    {
      "user": 156,
      "company": { "id": 983, "name": "PEREF", "organization": 960 },
      "role": { "id": 2, "name": "ROLE_ADMIN" },
      "type": "USER",
      "createdAt": 1582540191000,
      "updatedAt": 1582540191000
    },
    {
      "user": 156,
      "company": { "id": 984, "name": "Prova Checklist", "organization": 961 },
      "role": { "id": 2, "name": "ROLE_ADMIN" },
      "type": "USER",
      "createdAt": 1582540191000,
      "updatedAt": 1582540191000
    },
    {
      "user": 156,
      "company": { "id": 985, "name": "Preva", "organization": 962 },
      "role": { "id": 2, "name": "ROLE_ADMIN" },
      "type": "USER",
      "createdAt": 1582540191000,
      "updatedAt": 1582540191000
    },
    {
      "user": 156,
      "company": { "id": 24, "name": "SweetGuest Portogallo", "organization": 15 },
      "role": { "id": 2, "name": "ROLE_ADMIN" },
      "type": "USER",
      "createdAt": 1582540191000,
      "updatedAt": 1582540191000
    },
    {
      "user": 156,
      "company": { "id": 26, "name": "SweetGuest Franciasing", "organization": 15 },
      "role": { "id": 2, "name": "ROLE_ADMIN" },
      "type": "USER",
      "createdAt": 1582540191000,
      "updatedAt": 1582540191000
    },
    {
      "user": 156,
      "company": { "id": 28, "name": "SweetGuest Svizzera", "organization": 15 },
      "role": { "id": 2, "name": "ROLE_ADMIN" },
      "type": "USER",
      "createdAt": 1582540191000,
      "updatedAt": 1582540191000
    },
    {
      "user": 156,
      "company": { "id": 34, "name": "SweetGuest Italiapuzza", "organization": 15 },
      "role": { "id": 2, "name": "ROLE_ADMIN" },
      "type": "USER",
      "createdAt": 1582540191000,
      "updatedAt": 1582540191000
    },
    {
      "user": 156,
      "company": { "id": 37, "name": "SweetGuest Spagna", "organization": 15 },
      "role": { "id": 2, "name": "ROLE_ADMIN" },
      "type": "USER",
      "createdAt": 1582540191000,
      "updatedAt": 1582540191000
    },
    {
      "user": 156,
      "company": { "id": 40, "name": "SweetGuest UK", "organization": 15 },
      "role": { "id": 2, "name": "ROLE_ADMIN" },
      "type": "USER",
      "createdAt": 1582540191000,
      "updatedAt": 1582540191000
    },
    {
      "user": 156,
      "company": { "id": 963, "name": "Sotto sotto", "organization": 15 },
      "role": { "id": 2, "name": "ROLE_ADMIN" },
      "type": "USER",
      "createdAt": 1582540191000,
      "updatedAt": 1582540191000
    },
    {
      "user": 156,
      "company": { "id": 30, "name": "Bottega53", "organization": 21 },
      "role": { "id": 2, "name": "ROLE_ADMIN" },
      "type": "USER",
      "createdAt": 1582540191000,
      "updatedAt": 1582540191000
    },
    {
      "user": 156,
      "company": { "id": 31, "name": "Bottega56", "organization": 21 },
      "role": { "id": 2, "name": "ROLE_ADMIN" },
      "type": "USER",
      "createdAt": 1582540191000,
      "updatedAt": 1582540191000
    },
    {
      "user": 156,
      "company": { "id": 32, "name": "Bottega57 Sub", "organization": 21 },
      "role": { "id": 2, "name": "ROLE_ADMIN" },
      "type": "USER",
      "createdAt": 1582540191000,
      "updatedAt": 1582540191000
    },
    {
      "user": 156,
      "company": { "id": 39, "name": "Bottega Subber", "organization": 21 },
      "role": { "id": 2, "name": "ROLE_ADMIN" },
      "type": "USER",
      "createdAt": 1582540191000,
      "updatedAt": 1582540191000
    },
    {
      "user": 156,
      "company": { "id": 44, "name": "Bottega Sub NUOVA", "organization": 21 },
      "role": { "id": 2, "name": "ROLE_ADMIN" },
      "type": "USER",
      "createdAt": 1582540191000,
      "updatedAt": 1582540191000
    },
    {
      "user": 156,
      "company": { "id": 45, "name": "SweetGuest Zurigo", "organization": 15 },
      "role": { "id": 2, "name": "ROLE_ADMIN" },
      "type": "USER",
      "createdAt": 1582540191000,
      "updatedAt": 1582540191000
    },
    {
      "user": 156,
      "company": { "id": 35, "name": "Sweet Guest Milanija", "organization": 15 },
      "role": { "id": 2, "name": "ROLE_ADMIN" },
      "type": "USER",
      "createdAt": 1582540191000,
      "updatedAt": 1582540191000
    },
    {
      "user": 156,
      "company": { "id": 36, "name": "Sweet Guest Roma", "organization": 15 },
      "role": { "id": 2, "name": "ROLE_ADMIN" },
      "type": "USER",
      "createdAt": 1582540191000,
      "updatedAt": 1582540191000
    },
    {
      "user": 156,
      "company": { "id": 33, "name": "Bottega54 sub", "organization": 21 },
      "role": { "id": 2, "name": "ROLE_ADMIN" },
      "type": "USER",
      "createdAt": 1582540192000,
      "updatedAt": 1582540192000
    }
  ],
  "pageable": {
    "sort": { "sorted": false, "unsorted": true, "empty": true },
    "offset": 0,
    "pageSize": 50,
    "pageNumber": 0,
    "paged": true,
    "unpaged": false
  },
  "totalElements": 52,
  "totalPages": 2,
  "last": false,
  "size": 50,
  "number": 0,
  "sort": { "sorted": false, "unsorted": true, "empty": true },
  "numberOfElements": 50,
  "first": true,
  "empty": false
}
