{
  "content": [
    {
      "id": 744,
      "code": "SWT34-744",
      "title": "Shooting Nuovo",
      "company": { "id": 34, "name": "SweetGuest Italia", "organization": 15 },
      "photographerId": 8,
      "startDate": 1571148023000,
      "endDate": 1571151623000,
      "timezone": "Europe/Rome",
      "place": {
        "placeId": "Ej9WaWEgZGVsbGEgQ29uY2lsaWF6aW9uZSwgUm9tZSwgTWV0cm9wb2xpdGFuIENpdHkgb2YgUm9tZSwgSXRhbHkiLiosChQKEgkPWQByXWAvExHU6fQXUuC0TRIUChIJXxbwqK9hLxMR1Rw3v1GMDEA",
        "formattedAddress": "Via della Conciliazione, 00193 Roma RM, Italy",
        "city": "Roma",
        "street": "Via della Conciliazione",
        "timezone": "Europe/Rome",
        "location": { "latitude": 41.9023398, "longitude": 12.4620129 }
      },
      "pricingPackageId": 16,
      "state": "ARCHIVED",
      "createdAt": 1571054141000,
      "updatedAt": 1594021130000,
      "downloadLink": "http://localhost:8080/api/v1/public/shootings/images/75b1be891740ed78ecbfb0cde0950deb2c2d9436fb0a4f63e63d78657bf22ef9",
      "distance": null,
      "travelExpenses": null,
      "deliveryMethods": [],
      "deliveryStatus": null
    },
    {
      "id": 747,
      "code": "SWT34-747",
      "title": "Shooting presto",
      "company": { "id": 34, "name": "SweetGuest Italia", "organization": 15 },
      "photographerId": 8,
      "startDate": 1571140833000,
      "endDate": 1571148033000,
      "timezone": "Europe/Rome",
      "place": {
        "placeId": "Ej9WaWEgZGVsbGEgQ29uY2lsaWF6aW9uZSwgUm9tZSwgTWV0cm9wb2xpdGFuIENpdHkgb2YgUm9tZSwgSXRhbHkiLiosChQKEgkPWQByXWAvExHU6fQXUuC0TRIUChIJXxbwqK9hLxMR1Rw3v1GMDEA",
        "formattedAddress": "Via della Conciliazione, 00193 Roma RM, Italy",
        "city": "Roma",
        "street": "Via della Conciliazione",
        "timezone": "Europe/Rome",
        "location": { "latitude": 41.9023398, "longitude": 12.4620129 }
      },
      "pricingPackageId": 11,
      "state": "ARCHIVED",
      "createdAt": 1571055007000,
      "updatedAt": 1594021130000,
      "downloadLink": "http://localhost:8080/api/v1/public/shootings/images/796edc39b86f64feb910857e662a94b9d1c35af21cce0bcc5f659c383597a1eb",
      "distance": null,
      "travelExpenses": null,
      "deliveryMethods": [],
      "deliveryStatus": null
    },
    {
      "id": 748,
      "code": "SWT34-748",
      "title": "Shooting super presto",
      "company": { "id": 34, "name": "SweetGuest Italia", "organization": 15 },
      "photographerId": 8,
      "startDate": 1571065214000,
      "endDate": 1571068814000,
      "timezone": "Europe/Rome",
      "place": {
        "placeId": "Ej5WaWEgZGVpIEZvcmkgSW1wZXJpYWxpLCBSb21lLCBNZXRyb3BvbGl0YW4gQ2l0eSBvZiBSb21lLCBJdGFseSIuKiwKFAoSCU-co_CzYS8TEcdXO9_pDPRCEhQKEgm7jpL5lmEvExE4bmWTBncPuQ",
        "formattedAddress": "Via dei Fori Imperiali, Roma RM, Italy",
        "city": "Roma",
        "street": "Via dei Fori Imperiali",
        "timezone": "Europe/Rome",
        "location": { "latitude": 41.8929179, "longitude": 12.4877204 }
      },
      "pricingPackageId": 12,
      "state": "REFUSED",
      "createdAt": 1571055048000,
      "updatedAt": 1594035867000,
      "downloadLink": "http://localhost:8080/api/v1/public/shootings/images/1a0141eb535a3c1a9d2ec3d96dc7d940793f71e8b934c6978da55d7bd9521641",
      "distance": null,
      "travelExpenses": null,
      "deliveryMethods": [],
      "deliveryStatus": null
    },
    {
      "id": 742,
      "code": "SWT34-742",
      "title": "Shooting -1",
      "company": { "id": 34, "name": "SweetGuest Italia", "organization": 15 },
      "photographerId": null,
      "startDate": 1570870800000,
      "endDate": 1570874400000,
      "timezone": "Europe/Lisbon",
      "place": {
        "placeId": "ChIJO_PkYRozGQ0R0DaQ5L3rAAQ",
        "formattedAddress": "Lisbon, Portugal",
        "city": "Lisbon",
        "street": null,
        "timezone": "Europe/Lisbon",
        "location": { "latitude": 38.7222524, "longitude": -9.1393366 }
      },
      "pricingPackageId": 12,
      "state": "PENDING",
      "createdAt": 1570783608000,
      "updatedAt": 1594035867000,
      "downloadLink": "http://localhost:8080/api/v1/public/shootings/images/b398f3f905317510fd8f76f9e2318478acdc0941e16cdcd1044ec851cf71ada7",
      "distance": null,
      "travelExpenses": null,
      "deliveryMethods": [],
      "deliveryStatus": null
    },
    {
      "id": 743,
      "code": "SWT34-743",
      "title": "Shooting lozio",
      "company": { "id": 34, "name": "SweetGuest Italia", "organization": 15 },
      "photographerId": null,
      "startDate": 1570870500000,
      "endDate": 1570877700000,
      "timezone": "Europe/Madrid",
      "place": {
        "placeId": "ChIJb7Dv8ExPYA0ROR1_HwFRo7Q",
        "formattedAddress": "Valencia, Spain",
        "city": "Valencia",
        "street": null,
        "timezone": "Europe/Madrid",
        "location": { "latitude": 39.4699075, "longitude": -0.3762881 }
      },
      "pricingPackageId": 11,
      "state": "PENDING",
      "createdAt": 1570783951000,
      "updatedAt": 1594035867000,
      "downloadLink": "http://localhost:8080/api/v1/public/shootings/images/b252d08b34ad4d727063b6b02a4a3fc9f31bdc15848f7d60dd0ba096066536c7",
      "distance": null,
      "travelExpenses": null,
      "deliveryMethods": [],
      "deliveryStatus": null
    },
    {
      "id": 711,
      "code": "SWT34-711",
      "title": "SWT34-711 - TAI",
      "company": { "id": 34, "name": "SweetGuest Italia", "organization": 15 },
      "photographerId": null,
      "startDate": 1570806000000,
      "endDate": 1570813200000,
      "timezone": "Asia/Saigon",
      "place": {
        "placeId": "ChIJXx5qc016FTERvmL-4smwO7A",
        "formattedAddress": "Vietnam",
        "city": "Lisbon",
        "street": null,
        "timezone": "Asia/Saigon",
        "location": { "latitude": 14.058324, "longitude": 108.277199 }
      },
      "pricingPackageId": 13,
      "state": "PENDING",
      "createdAt": 1570178519000,
      "updatedAt": 1594035867000,
      "downloadLink": "http://localhost:8080/api/v1/public/shootings/images/56fc3a08101e23bb262dfd758c7d5657e1cd0dc660e1158aca84aedb7c224b93",
      "distance": null,
      "travelExpenses": null,
      "deliveryMethods": [],
      "deliveryStatus": null
    },
    {
      "id": 741,
      "code": "SWT34-741",
      "title": "Via Giovanni Durando - Milano",
      "company": { "id": 34, "name": "SweetGuest Italia", "organization": 15 },
      "photographerId": 8,
      "startDate": 1570802448000,
      "endDate": 1570806048000,
      "timezone": "Europe/Rome",
      "place": {
        "placeId": "EiZWaWEgR2lvdmFubmkgRHVyYW5kbywgTWlsYW5vIE1JLCBJdGFseSIuKiwKFAoSCc3bRR7lwIZHEaqB1KbzaCUeEhQKEgnndRI_ScGGRxGNDnTGE83_PA",
        "formattedAddress": "Via Giovanni Durando, 20158 Milano MI, Italy",
        "city": "Milano",
        "street": "Via Giovanni Durando",
        "timezone": "Europe/Rome",
        "location": { "latitude": 45.5067388, "longitude": 9.1631477 }
      },
      "pricingPackageId": 16,
      "state": "ARCHIVED",
      "createdAt": 1570699931000,
      "updatedAt": 1594030905000,
      "downloadLink": "http://localhost:8080/api/v1/public/shootings/images/d0cc0b4ab483103fcc4d20930edf537badf224b3841b304949de8ba1435c4f68",
      "distance": null,
      "travelExpenses": null,
      "deliveryMethods": [],
      "deliveryStatus": null
    },
    {
      "id": 731,
      "code": "SWT34-731",
      "title": "SWT34-731 - Lisbon",
      "company": { "id": 34, "name": "SweetGuest Italia", "organization": 15 },
      "photographerId": null,
      "startDate": 1570782900000,
      "endDate": 1570790100000,
      "timezone": "Europe/Lisbon",
      "place": {
        "placeId": "ChIJO_PkYRozGQ0R0DaQ5L3rAAQ",
        "formattedAddress": "Lisbon, Portugal",
        "city": "Lisbon",
        "street": null,
        "timezone": "Europe/Lisbon",
        "location": { "latitude": 38.7222524, "longitude": -9.1393366 }
      },
      "pricingPackageId": 13,
      "state": "PENDING",
      "createdAt": 1570452244000,
      "updatedAt": 1594035867000,
      "downloadLink": "http://localhost:8080/api/v1/public/shootings/images/e27d5f5f744550215c9012a3244a98f9c6cf59988888cc56ff3618addc8ec1e8",
      "distance": null,
      "travelExpenses": null,
      "deliveryMethods": [],
      "deliveryStatus": null
    },
    {
      "id": 739,
      "code": "SWT34-739",
      "title": "SWT34-739",
      "company": { "id": 34, "name": "SweetGuest Italia", "organization": 15 },
      "photographerId": null,
      "startDate": 1570782600000,
      "endDate": 1570786200000,
      "timezone": "Asia/Bangkok",
      "place": {
        "placeId": "ChIJsU1CR_eNTTARAuhXB4gs154",
        "formattedAddress": "Thailand",
        "city": null,
        "street": null,
        "timezone": "Asia/Bangkok",
        "location": { "latitude": 15.870032, "longitude": 100.992541 }
      },
      "pricingPackageId": 16,
      "state": "PENDING",
      "createdAt": 1570625019000,
      "updatedAt": 1594035867000,
      "downloadLink": "http://localhost:8080/api/v1/public/shootings/images/2fd2091f2aaa28cc437e28c6b99f014f616300376aac134e8ecd40b7c33ee154",
      "distance": null,
      "travelExpenses": null,
      "deliveryMethods": [],
      "deliveryStatus": null
    },
    {
      "id": 740,
      "code": "SWT34-740",
      "title": "Shooting Thai",
      "company": { "id": 34, "name": "SweetGuest Italia", "organization": 15 },
      "photographerId": null,
      "startDate": 1570777250000,
      "endDate": 1570784450000,
      "timezone": "Asia/Bangkok",
      "place": {
        "placeId": "ChIJsU1CR_eNTTARAuhXB4gs154",
        "formattedAddress": "Thailand",
        "city": null,
        "street": null,
        "timezone": "Asia/Bangkok",
        "location": { "latitude": 15.870032, "longitude": 100.992541 }
      },
      "pricingPackageId": 11,
      "state": "PENDING",
      "createdAt": 1570699652000,
      "updatedAt": 1594035867000,
      "downloadLink": "http://localhost:8080/api/v1/public/shootings/images/d6e7317b7e591aa40a0bcb29e3c81319d1b74fea741abea3a5d8d353f405baa3",
      "distance": null,
      "travelExpenses": null,
      "deliveryMethods": [],
      "deliveryStatus": null
    }
  ],
  "pageable": {
    "sort": { "sorted": true, "unsorted": false, "empty": false },
    "offset": 10,
    "pageSize": 10,
    "pageNumber": 1,
    "paged": true,
    "unpaged": false
  },
  "totalElements": 261,
  "last": false,
  "totalPages": 27,
  "size": 10,
  "number": 1,
  "sort": { "sorted": true, "unsorted": false, "empty": false },
  "numberOfElements": 10,
  "first": false,
  "empty": false
}
