{
  "content": [
    {
      "id": 754,
      "code": "SWT34-754",
      "title": "Prova 2",
      "company": { "id": 34, "name": "SweetGuest Italia", "organization": 15 },
      "photographerId": null,
      "startDate": 1594112400000,
      "endDate": 1594119600000,
      "timezone": "Europe/Rome",
      "place": {
        "placeId": "ChIJQQaQDzDEhkcRPXMFktN5Fvg",
        "formattedAddress": "Corso Lodi, Milano MI, Italy",
        "city": "Milano",
        "street": "Corso Lodi",
        "timezone": "Europe/Rome",
        "location": { "latitude": 45.44565799999999, "longitude": 9.2131335 }
      },
      "pricingPackageId": 13,
      "state": "MATCHED",
      "createdAt": 1594021952000,
      "updatedAt": 1594021954000,
      "downloadLink": "http://localhost:8080/api/v1/public/shootings/images/8fd02528ca109e3428540dd741b9c01997b674df1964c2378320d543dd55f222",
      "distance": null,
      "travelExpenses": null,
      "deliveryMethods": [],
      "deliveryStatus": null
    },
    {
      "id": 753,
      "code": "SWT34-753",
      "title": "Prova",
      "company": { "id": 34, "name": "SweetGuest Italia", "organization": 15 },
      "photographerId": null,
      "startDate": 1594107000000,
      "endDate": 1594110600000,
      "timezone": "Europe/Rome",
      "place": {
        "placeId": "ChIJQQaQDzDEhkcRPXMFktN5Fvg",
        "formattedAddress": "Corso Lodi, Milano MI, Italy",
        "city": "Milano",
        "street": "Corso Lodi",
        "timezone": "Europe/Rome",
        "location": { "latitude": 45.44565799999999, "longitude": 9.2131335 }
      },
      "pricingPackageId": 12,
      "state": "PENDING",
      "createdAt": 1594020801000,
      "updatedAt": 1594020811000,
      "downloadLink": "http://localhost:8080/api/v1/public/shootings/images/a840feaf69f40420a73996a0b56405e97b13bc21abf226d086b0cce935051851",
      "distance": null,
      "travelExpenses": null,
      "deliveryMethods": [],
      "deliveryStatus": null
    },
    {
      "id": 756,
      "code": "SWT34-756",
      "title": "Prova unscheduled",
      "company": { "id": 34, "name": "SweetGuest Italia", "organization": 15 },
      "photographerId": null,
      "startDate": 1594076280000,
      "endDate": 1594083480000,
      "timezone": "Europe/Rome",
      "place": {
        "placeId": "ChIJQQaQDzDEhkcRPXMFktN5Fvg",
        "formattedAddress": "Corso Lodi, Milano MI, Italy",
        "city": "Milano",
        "street": "Corso Lodi",
        "timezone": "Europe/Rome",
        "location": { "latitude": 45.44565799999999, "longitude": 9.2131335 }
      },
      "pricingPackageId": 13,
      "state": "MATCHED",
      "createdAt": 1594047523000,
      "updatedAt": 1594047541000,
      "downloadLink": "http://localhost:8080/api/v1/public/shootings/images/929cfabd69253f462d36f0c6ed6ea32abae99dc6d030c5a35f8ca97f2577f73d",
      "distance": null,
      "travelExpenses": null,
      "deliveryMethods": [],
      "deliveryStatus": null
    },
    {
      "id": 755,
      "code": "SWT34-755",
      "title": "Prova order unscheduled",
      "company": { "id": 34, "name": "SweetGuest Italia", "organization": 15 },
      "photographerId": null,
      "startDate": 1594073100000,
      "endDate": 1594080300000,
      "timezone": "Europe/Rome",
      "place": {
        "placeId": "ChIJLfawmlDBhkcRX8dY63xh_1w",
        "formattedAddress": "Corso Magenta, Milano MI, Italy",
        "city": "Milano",
        "street": "Corso Magenta",
        "timezone": "Europe/Rome",
        "location": { "latitude": 45.4657262, "longitude": 9.173159199999999 }
      },
      "pricingPackageId": 13,
      "state": "MATCHED",
      "createdAt": 1594046817000,
      "updatedAt": 1594047197000,
      "downloadLink": "http://localhost:8080/api/v1/public/shootings/images/ef244e59dd6e22e0801d511898d9255e4c2a413615c50b0c89b4943dc7ce9df1",
      "distance": null,
      "travelExpenses": null,
      "deliveryMethods": [
        { "type": "EMAIL", "contact": "prova@boom.co", "status": "WAITING", "errorMessage": null, "alias": null },
        { "type": "EMAIL", "contact": "ste@boom.co", "status": "WAITING", "errorMessage": null, "alias": null }
      ],
      "deliveryStatus": "WAITING"
    },
    {
      "id": 752,
      "code": "SWT15-752",
      "title": "First Shooting",
      "company": { "id": 15, "name": "SweetGuest", "organization": 15 },
      "photographerId": 658,
      "startDate": 1584100225000,
      "endDate": 1584107425000,
      "timezone": "Europe/Rome",
      "place": {
        "placeId": "ChIJO3ir3D60fkcRQs9APkDT_zA",
        "formattedAddress": "Mestre, Venice, Metropolitan City of Venice, Italy",
        "city": "Venice",
        "street": null,
        "timezone": "Europe/Rome",
        "location": { "latitude": 45.4934881, "longitude": 12.2463181 }
      },
      "pricingPackageId": 11,
      "state": "ARCHIVED",
      "createdAt": 1584002598000,
      "updatedAt": 1594019284000,
      "downloadLink": "http://localhost:8080/api/v1/public/shootings/images/7a2e38f2d5dd59a562d137f6eddbd9ee0d22a94e961689716c49cdef92e2bc3b",
      "distance": null,
      "travelExpenses": null,
      "deliveryMethods": [],
      "deliveryStatus": null
    },
    {
      "id": 751,
      "code": "SWT34-751",
      "title": "Shooting Londra",
      "company": { "id": 34, "name": "SweetGuest Italia", "organization": 15 },
      "photographerId": null,
      "startDate": 1573812041000,
      "endDate": 1573819241000,
      "timezone": "Europe/London",
      "place": {
        "placeId": "EiBCYWtlciBTdCwgTWFyeWxlYm9uZSwgTG9uZG9uLCBVSyIuKiwKFAoSCddnLprOGnZIEY5J3A-N3ljUEhQKEgmrnKHRzRp2SBEKb2cdjZxfyw",
        "formattedAddress": "Baker St, Marylebone, London, UK",
        "city": "London",
        "street": "Baker Street",
        "timezone": "Europe/London",
        "location": { "latitude": 51.521124, "longitude": -0.1570353 }
      },
      "pricingPackageId": 13,
      "state": "PENDING",
      "createdAt": 1573724868000,
      "updatedAt": 1594035743000,
      "downloadLink": "http://localhost:8080/api/v1/public/shootings/images/b61a9b81ad615c9f2d374efb3cc0c44c4a209c343b5f9a7d02c99823b6897b31",
      "distance": null,
      "travelExpenses": null,
      "deliveryMethods": [],
      "deliveryStatus": null
    },
    {
      "id": 750,
      "code": "SWT34-750",
      "title": "test",
      "company": { "id": 34, "name": "SweetGuest Italia", "organization": 15 },
      "photographerId": 8,
      "startDate": 1573808400000,
      "endDate": 1573812000000,
      "timezone": "Europe/Rome",
      "place": {
        "placeId": "EiZWaWEgR2lvdmFubmkgRHVyYW5kbywgTWlsYW5vIE1JLCBJdGFseSIuKiwKFAoSCc3bRR7lwIZHEaqB1KbzaCUeEhQKEgnndRI_ScGGRxGNDnTGE83_PA",
        "formattedAddress": "Via Giovanni Durando, 20158 Milano MI, Italy",
        "city": "Milano",
        "street": "Via Giovanni Durando",
        "timezone": "Europe/Rome",
        "location": { "latitude": 45.5067388, "longitude": 9.1631477 }
      },
      "pricingPackageId": 12,
      "state": "ACCEPTED",
      "createdAt": 1573573480000,
      "updatedAt": 1594021132000,
      "downloadLink": "http://localhost:8080/api/v1/public/shootings/images/5c38385b046a094dc76966f57876cf003748aca8ec7fce552005c110b8f55dcc",
      "distance": null,
      "travelExpenses": null,
      "deliveryMethods": [],
      "deliveryStatus": null
    },
    {
      "id": 749,
      "code": "SWT34-749",
      "title": "provolone",
      "company": { "id": 34, "name": "SweetGuest Italia", "organization": 15 },
      "photographerId": 8,
      "startDate": 1573740000000,
      "endDate": 1573747200000,
      "timezone": "Europe/Rome",
      "place": {
        "placeId": "EiZWaWEgR2lvdmFubmkgRHVyYW5kbywgTWlsYW5vIE1JLCBJdGFseSIuKiwKFAoSCc3bRR7lwIZHEaqB1KbzaCUeEhQKEgnndRI_ScGGRxGNDnTGE83_PA",
        "formattedAddress": "Via Giovanni Durando, 20158 Milano MI, Italy",
        "city": "Milano",
        "street": "Via Giovanni Durando",
        "timezone": "Europe/Rome",
        "location": { "latitude": 45.5067388, "longitude": 9.1631477 }
      },
      "pricingPackageId": 11,
      "state": "ACCEPTED",
      "createdAt": 1573572894000,
      "updatedAt": 1594035743000,
      "downloadLink": "http://localhost:8080/api/v1/public/shootings/images/2345cf082f0681b27c33dab4f76adee20a0ed661731b58bd4092501d95517706",
      "distance": null,
      "travelExpenses": null,
      "deliveryMethods": [],
      "deliveryStatus": null
    },
    {
      "id": 746,
      "code": "SWT34-746",
      "title": "Shooting nuoverrimo",
      "company": { "id": 34, "name": "SweetGuest Italia", "organization": 15 },
      "photographerId": 8,
      "startDate": 1571585400000,
      "endDate": 1571589000000,
      "timezone": "Europe/Rome",
      "place": {
        "placeId": "Ej9WaWEgZGVsbGEgQ29uY2lsaWF6aW9uZSwgUm9tZSwgTWV0cm9wb2xpdGFuIENpdHkgb2YgUm9tZSwgSXRhbHkiLiosChQKEgkPWQByXWAvExHU6fQXUuC0TRIUChIJXxbwqK9hLxMR1Rw3v1GMDEA",
        "formattedAddress": "Via della Conciliazione, 00193 Roma RM, Italy",
        "city": "Roma",
        "street": "Via della Conciliazione",
        "timezone": "Europe/Rome",
        "location": { "latitude": 41.9023398, "longitude": 12.4620129 }
      },
      "pricingPackageId": 16,
      "state": "ASSIGNED",
      "createdAt": 1571054869000,
      "updatedAt": 1594035743000,
      "downloadLink": "http://localhost:8080/api/v1/public/shootings/images/9fec4faf69e7ee62e4b7362216fc39b24ca6ed1eb2a165aa3d9359b847d36fb2",
      "distance": null,
      "travelExpenses": null,
      "deliveryMethods": [],
      "deliveryStatus": null
    },
    {
      "id": 745,
      "code": "SWT34-745",
      "title": "Shooting nuovissimo",
      "company": { "id": 34, "name": "SweetGuest Italia", "organization": 15 },
      "photographerId": 8,
      "startDate": 1571155231000,
      "endDate": 1571158831000,
      "timezone": "Europe/Rome",
      "place": {
        "placeId": "Ej9WaWEgZGVsbGEgQ29uY2lsaWF6aW9uZSwgUm9tZSwgTWV0cm9wb2xpdGFuIENpdHkgb2YgUm9tZSwgSXRhbHkiLiosChQKEgkPWQByXWAvExHU6fQXUuC0TRIUChIJXxbwqK9hLxMR1Rw3v1GMDEA",
        "formattedAddress": "Via della Conciliazione, 00193 Roma RM, Italy",
        "city": "Roma",
        "street": "Via della Conciliazione",
        "timezone": "Europe/Rome",
        "location": { "latitude": 41.9023398, "longitude": 12.4620129 }
      },
      "pricingPackageId": 16,
      "state": "POST_PROCESSING",
      "createdAt": 1571054816000,
      "updatedAt": 1594035743000,
      "downloadLink": "http://localhost:8080/api/v1/public/shootings/images/6f98ba9b2b1555c304fd0af0dd6804e738379e3371277e8b0c7914ec788cb31a",
      "distance": null,
      "travelExpenses": null,
      "deliveryMethods": [],
      "deliveryStatus": null
    }
  ],
  "pageable": {
    "sort": { "sorted": true, "unsorted": false, "empty": false },
    "offset": 0,
    "pageSize": 10,
    "pageNumber": 0,
    "paged": true,
    "unpaged": false
  },
  "totalElements": 261,
  "last": false,
  "totalPages": 27,
  "size": 10,
  "number": 0,
  "sort": { "sorted": true, "unsorted": false, "empty": false },
  "numberOfElements": 10,
  "first": true,
  "empty": false
}
